{
  "entities": [
    {
      "company": "Dweet",
      "name": "HVAC",
      "method": "GET",
      "url": "https://verizonventures-prod.apigee.net",
      "path": "/dweet/get/latest/dweet/for/d31eb29a-7349-4fa6-8529-40e34bcd3d8d?vzvkey=XA2AV4kUZubjtZ4K9ILMoOhei4FZxR7K"
    },
    {
      "company": "Dweet",
      "name": "HVAC",
      "method": "POST",
      "url": "https://verizonventures-prod.apigee.net",
      "path": "/dweet/dweet/for/d31eb29a-7349-4fa6-8529-40e34bcd3d8d?vzvkey=XA2AV4kUZubjtZ4K9ILMoOhei4FZxR7K",
      "body": {
        "location": "Home",
        "name": "Interior Temp",
        "status": "71"
      }
    },
    {
      "company": "Dweet",
      "name": "Security",
      "method": "GET",
      "url": "https://verizonventures-prod.apigee.net",
      "path": "/dweet/get/latest/dweet/for/9dc95898-0d9c-4046-9188-a9be92b2edfe?vzvkey=XA2AV4kUZubjtZ4K9ILMoOhei4FZxR7K"
    },
    {
      "company": "Dweet",
      "name": "Security",
      "method": "POST",
      "url": "https://verizonventures-prod.apigee.net",
      "path": "/dweet/dweet/for/9dc95898-0d9c-4046-9188-a9be92b2edfe?vzvkey=XA2AV4kUZubjtZ4K9ILMoOhei4FZxR7K",
      "body": {
        "location": "Home",
        "name": "Security",
        "status": "Armed"
      }
    },
    {
      "company": "Dweet",
      "name": "Dishwasher",
      "method": "GET",
      "url": "https://verizonventures-prod.apigee.net",
      "path": "/dweet/get/latest/dweet/for/ef41c592-2c6e-41cb-aee6-91946154ba38?vzvkey=XA2AV4kUZubjtZ4K9ILMoOhei4FZxR7K"
    },
    {
      "company": "Dweet",
      "name": "Dishwasher",
      "method": "POST",
      "url": "https://verizonventures-prod.apigee.net",
      "path": "/dweet/dweet/for/ef41c592-2c6e-41cb-aee6-91946154ba38?vzvkey=XA2AV4kUZubjtZ4K9ILMoOhei4FZxR7K",
      "body": {
        "location": "Home",
        "name": "Dishwasher",
        "status": "Washing"
      }
    },
    {
      "company": "Kiip",
      "name": "Session",
      "method": "POST",
      "body": {
        "app_key": "440c5e52f37554e536b1c12c79594954",
        "device_id": "test001",
        "events": [
          {
            "id": "session_start",
            "start": "2015-05-28T15:23:22"
          }
        ],
        "protocol": "http",
        "sdk_version": "1.0",
        "test": true
      },
      "url": "http://verizonventures-prod.apigee.net",
      "path": "/kiip/2.0/web/moment?vzvkey=DgOhAlvkDJVj6yfX1obAk2YFbaqc1GVv"
    },
    {
      "company": "Kiip",
      "name": "Reward",
      "method": "POST",
      "body": {
        "app_key": "440c5e52f37554e536b1c12c79594954",
        "device_id": "test001",
        "moment_id": "Driving 100 miles safely",
        "protocol": "http",
        "sdk_version": "1.0",
        "test": true
      },
      "url": "http://verizonventures-prod.apigee.net",
      "path": "/kiip/2.0/web/moment?vzvkey=DgOhAlvkDJVj6yfX1obAk2YFbaqc1GVv"
    }
  ]
}